[
    {
        "id": 994,
        "name": "England - Premier League",
        "homeTeamType": "Team1",
        "hasOfferings": true,
        "allowRoundRobins": true,
        "leagueSpecialsCount": 1,
        "eventSpecialsCount": 155,
        "eventCount": 73,
        "pinnacleId": 1980,
        "events": [
            {
                "id": 1188,
                "pinnacleId": 786523168,
                "pinnacleLeagueId": 1980,
                "startDate": 1513108800000,
                "home": "Huddersfield Town",
                "away": "Chelsea",
                "rotNum": "2531",
                "liveStatus": "0",
                "status": "I",
                "parlayRestriction": "2",
                "published": true,
                "periods": [
                    {
                        "id": 47362,
                        "pinnacleId": 450840669,
                        "number": 1,
                        "cutoff": 1513108800000,
                        "maxSpread": 2000.00,
                        "maxTotal": 2000.00,
                        "spreads": [
                            {
                                "id": 47363,
                                "pinnacleLineId": 450840669,
                                "away": 1.88,
                                "home": 2.01,
                                "hdp": 0.50
                            }
                        ],
                        "moneylines": [],
                        "totals": [
                            {
                                "id": 47364,
                                "pinnacleLineId": 450840669,
                                "points": 1.00,
                                "over": 1.85,
                                "under": 2.04
                            }
                        ],
                        "teamTotals": []
                    },
                    {
                        "id": 47365,
                        "pinnacleId": 450840664,
                        "number": 0,
                        "cutoff": 1513108800000,
                        "maxSpread": 2000.00,
                        "maxTotal": 2000.00,
                        "maxMoneyline": 1000.00,
                        "maxTeamTotal": 2000.00,
                        "spreads": [
                            {
                                "id": 47368,
                                "pinnacleLineId": 5464977135,
                                "away": 2.06,
                                "home": 1.84,
                                "hdp": 1.50
                            },
                            {
                                "id": 47370,
                                "pinnacleLineId": 5464977139,
                                "away": 1.40,
                                "home": 3.01,
                                "hdp": 0.75
                            },
                            {
                                "id": 47366,
                                "pinnacleLineId": 450840664,
                                "away": 1.81,
                                "home": 2.10,
                                "hdp": 1.25
                            },
                            {
                                "id": 47367,
                                "pinnacleLineId": 5464977133,
                                "away": 2.39,
                                "home": 1.62,
                                "hdp": 1.75
                            },
                            {
                                "id": 47369,
                                "pinnacleLineId": 5464977137,
                                "away": 1.53,
                                "home": 2.59,
                                "hdp": 1.00
                            }
                        ],
                        "moneylines": [
                            {
                                "id": 47376,
                                "pinnacleLineId": 450840664,
                                "away": 1.34,
                                "home": 10.51,
                                "draw": 5.22
                            }
                        ],
                        "totals": [
                            {
                                "id": 47371,
                                "pinnacleLineId": 450840664,
                                "points": 2.75,
                                "over": 2.11,
                                "under": 1.80
                            },
                            {
                                "id": 47375,
                                "pinnacleLineId": 5464977140,
                                "points": 3.25,
                                "over": 2.80,
                                "under": 1.45
                            },
                            {
                                "id": 47373,
                                "pinnacleLineId": 5464977136,
                                "points": 2.50,
                                "over": 1.88,
                                "under": 2.02
                            },
                            {
                                "id": 47374,
                                "pinnacleLineId": 5464977138,
                                "points": 3.00,
                                "over": 2.48,
                                "under": 1.57
                            },
                            {
                                "id": 47372,
                                "pinnacleLineId": 5464977134,
                                "points": 2.25,
                                "over": 1.64,
                                "under": 2.35
                            }
                        ],
                        "teamTotals": [
                            {
                                "id": 47377,
                                "pinnacleLineId": 450840664,
                                "homePoints": 0.50,
                                "homeOver": 2.10,
                                "homeUnder": 1.80,
                                "awayPoints": 2.00,
                                "awayOver": 1.99,
                                "awayUnder": 1.90
                            }
                        ]
                    }
                ]
            },
            {
                "id": 1198,
                "pinnacleId": 786814483,
                "pinnacleLeagueId": 1980,
                "startDate": 1513195200000,
                "home": "Liverpool",
                "away": "West Brom",
                "rotNum": "2510",
                "liveStatus": "0",
                "status": "I",
                "parlayRestriction": "2",
                "published": true,
                "periods": [
                    {
                        "id": 47532,
                        "pinnacleId": 450842227,
                        "number": 0,
                        "cutoff": 1513195200000,
                        "maxSpread": 2000.00,
                        "maxTotal": 2000.00,
                        "maxMoneyline": 1000.00,
                        "maxTeamTotal": 2000.00,
                        "spreads": [
                            {
                                "id": 47537,
                                "pinnacleLineId": 5464997651,
                                "away": 2.78,
                                "home": 1.46,
                                "hdp": -1.25
                            },
                            {
                                "id": 47535,
                                "pinnacleLineId": 5464997647,
                                "away": 1.77,
                                "home": 2.15,
                                "hdp": -2.00
                            },
                            {
                                "id": 47536,
                                "pinnacleLineId": 5464997649,
                                "away": 2.35,
                                "home": 1.64,
                                "hdp": -1.50
                            },
                            {
                                "id": 47533,
                                "pinnacleLineId": 450842227,
                                "away": 2.05,
                                "home": 1.85,
                                "hdp": -1.75
                            },
                            {
                                "id": 47534,
                                "pinnacleLineId": 5464997645,
                                "away": 1.59,
                                "home": 2.45,
                                "hdp": -2.25
                            }
                        ],
                        "moneylines": [
                            {
                                "id": 47543,
                                "pinnacleLineId": 450842227,
                                "away": 13.95,
                                "home": 1.23,
                                "draw": 7.03
                            }
                        ],
                        "totals": [
                            {
                                "id": 47542,
                                "pinnacleLineId": 5464997652,
                                "points": 3.50,
                                "over": 2.37,
                                "under": 1.63
                            },
                            {
                                "id": 47541,
                                "pinnacleLineId": 5464997650,
                                "points": 3.25,
                                "over": 2.12,
                                "under": 1.79
                            },
                            {
                                "id": 47540,
                                "pinnacleLineId": 5464997648,
                                "points": 2.75,
                                "over": 1.66,
                                "under": 2.31
                            },
                            {
                                "id": 47538,
                                "pinnacleLineId": 450842227,
                                "points": 3.00,
                                "over": 1.86,
                                "under": 2.04
                            },
                            {
                                "id": 47539,
                                "pinnacleLineId": 5464997646,
                                "points": 2.50,
                                "over": 1.53,
                                "under": 2.59
                            }
                        ],
                        "teamTotals": [
                            {
                                "id": 47544,
                                "pinnacleLineId": 450842227,
                                "homePoints": 2.50,
                                "homeOver": 2.02,
                                "homeUnder": 1.87,
                                "awayPoints": 0.50,
                                "awayOver": 2.05,
                                "awayUnder": 1.83
                            }
                        ]
                    },
                    {
                        "id": 47545,
                        "pinnacleId": 450842228,
                        "number": 1,
                        "cutoff": 1513195200000,
                        "maxSpread": 2000.00,
                        "maxTotal": 2000.00,
                        "spreads": [
                            {
                                "id": 47546,
                                "pinnacleLineId": 450842228,
                                "away": 2.03,
                                "home": 1.85,
                                "hdp": -0.75
                            }
                        ],
                        "moneylines": [],
                        "totals": [
                            {
                                "id": 47547,
                                "pinnacleLineId": 450842228,
                                "points": 1.25,
                                "over": 1.88,
                                "under": 2.00
                            }
                        ],
                        "teamTotals": []
                    }
                ]
            },
            {
                "id": 1199,
                "pinnacleId": 786814483,
                "pinnacleLeagueId": 1980,
                "startDate": 1513195200000,
                "home": "Liverpool",
                "away": "West Brom",
                "rotNum": "2510",
                "liveStatus": "0",
                "status": "I",
                "parlayRestriction": "2",
                "published": true,
                "periods": [
                    {
                        "id": 47532,
                        "pinnacleId": 450842227,
                        "number": 0,
                        "cutoff": 1513195200000,
                        "maxSpread": 2000.00,
                        "maxTotal": 2000.00,
                        "maxMoneyline": 1000.00,
                        "maxTeamTotal": 2000.00,
                        "spreads": [
                            {
                                "id": 47537,
                                "pinnacleLineId": 5464997651,
                                "away": 2.78,
                                "home": 1.46,
                                "hdp": -1.25
                            },
                            {
                                "id": 47535,
                                "pinnacleLineId": 5464997647,
                                "away": 1.77,
                                "home": 2.15,
                                "hdp": -2.00
                            },
                            {
                                "id": 47536,
                                "pinnacleLineId": 5464997649,
                                "away": 2.35,
                                "home": 1.64,
                                "hdp": -1.50
                            },
                            {
                                "id": 47533,
                                "pinnacleLineId": 450842227,
                                "away": 2.05,
                                "home": 1.85,
                                "hdp": -1.75
                            },
                            {
                                "id": 47534,
                                "pinnacleLineId": 5464997645,
                                "away": 1.59,
                                "home": 2.45,
                                "hdp": -2.25
                            }
                        ],
                        "moneylines": [
                            {
                                "id": 47543,
                                "pinnacleLineId": 450842227,
                                "away": 13.95,
                                "home": 1.23,
                                "draw": 7.03
                            }
                        ],
                        "totals": [
                            {
                                "id": 47542,
                                "pinnacleLineId": 5464997652,
                                "points": 3.50,
                                "over": 2.37,
                                "under": 1.63
                            },
                            {
                                "id": 47541,
                                "pinnacleLineId": 5464997650,
                                "points": 3.25,
                                "over": 2.12,
                                "under": 1.79
                            },
                            {
                                "id": 47540,
                                "pinnacleLineId": 5464997648,
                                "points": 2.75,
                                "over": 1.66,
                                "under": 2.31
                            },
                            {
                                "id": 47538,
                                "pinnacleLineId": 450842227,
                                "points": 3.00,
                                "over": 1.86,
                                "under": 2.04
                            },
                            {
                                "id": 47539,
                                "pinnacleLineId": 5464997646,
                                "points": 2.50,
                                "over": 1.53,
                                "under": 2.59
                            }
                        ],
                        "teamTotals": [
                            {
                                "id": 47544,
                                "pinnacleLineId": 450842227,
                                "homePoints": 2.50,
                                "homeOver": 2.02,
                                "homeUnder": 1.87,
                                "awayPoints": 0.50,
                                "awayOver": 2.05,
                                "awayUnder": 1.83
                            }
                        ]
                    },
                    {
                        "id": 47545,
                        "pinnacleId": 450842228,
                        "number": 1,
                        "cutoff": 1513195200000,
                        "maxSpread": 2000.00,
                        "maxTotal": 2000.00,
                        "spreads": [
                            {
                                "id": 47546,
                                "pinnacleLineId": 450842228,
                                "away": 2.03,
                                "home": 1.85,
                                "hdp": -0.75
                            }
                        ],
                        "moneylines": [],
                        "totals": [
                            {
                                "id": 47547,
                                "pinnacleLineId": 450842228,
                                "points": 1.25,
                                "over": 1.88,
                                "under": 2.00
                            }
                        ],
                        "teamTotals": []
                    }
                ]
            },
            {
                "id": 1236,
                "pinnacleId": 782265192,
                "pinnacleLeagueId": 1980,
                "startDate": 1512226800000,
                "home": "Stoke City",
                "away": "Swansea City",
                "rotNum": "2513",
                "liveStatus": "2",
                "status": "I",
                "parlayRestriction": "2",
                "published": true,
                "periods": []
            }
        ]
    }
]